Final Project: Assessing COVID-19 Impacts on Voter Registration in 2020
…
Figure 1 belows shows that the population in the United States has been growing at a steady rate from 2016 to 2020. The constant growth leads me to hypothesize that there will be a growth in new voter registration numbers due to larger population in the United States. Any dramatic shifts in registration numbers will be alarming and a cause for investigation.

`summarise()` has grouped output by 'State'. You can override using the
`.groups` argument.

# A tibble: 48 × 5
   State Month Mean_cases median_cases SD_cases
   <chr> <ord>      <dbl>        <dbl>    <dbl>
 1 AZ    Jan       48383        48416    49546.
 2 AZ    Feb       16179.        7314.   22940.
 3 AZ    Mar        4496.        4566     3192.
 4 AZ    Apr        3185.        2931     1633.
 5 CA    Jan      276000.      202901   294608.
 6 CA    Feb       74911.       34524.  102732.
 7 CA    Mar       21051.       19942    14463.
 8 CA    Apr       16396.       12533    10589.
 9 CO    Jan       32514.       11191    43957.
10 CO    Feb        7455.        4707     9661.
# ℹ 38 more rows
…
